Exploring the BRFSS data
…
genrisk_sample %>%
  group_by(avedrnk2,sex) %>%
  filter(avedrnk2<15) %>%
  summarise(count=n())

## # A tibble: 21 x 3
## # Groups:   avedrnk2 [?]
##    avedrnk2    sex count
##       <int> <fctr> <int>
##  1        1   Male   206
##  2        1 Female   261
##  3        2   Male   159
##  4        2 Female    90
##  5        3   Male    91
##  6        3 Female    44
##  7        4   Male    33
##  8        4 Female    10
##  9        5   Male    17
## 10        5 Female     5
## # ... with 11 more rows
…
genrisk_sample %>%
  group_by(drnk3ge5,sex) %>%
  filter(drnk3ge5<15) %>%
  summarise(count=n())

## # A tibble: 25 x 3
## # Groups:   drnk3ge5 [?]
##    drnk3ge5    sex count
##       <int> <fctr> <int>
##  1        0   Male   385
##  2        0 Female   342
##  3        1   Male    44
##  4        1 Female    31
##  5        2   Male    41
##  6        2 Female    16
##  7        3   Male    21
##  8        3 Female     5
##  9        4   Male    21
## 10        4 Female     8
## # ... with 15 more rows
…
genrisk_sample %>%
  group_by(maxdrnks,sex) %>%
  filter(maxdrnks<35) %>%
  summarise(count=n())

## # A tibble: 35 x 3
## # Groups:   maxdrnks [?]
##    maxdrnks    sex count
##       <int> <fctr> <int>
##  1        1   Male    99
##  2        1 Female   155
##  3        2   Male   137
##  4        2 Female   126
##  5        3   Male   107
##  6        3 Female    56
##  7        4   Male    46
##  8        4 Female    28
##  9        5   Male    39
## 10        5 Female    13
## # ... with 25 more rows
…
